Capítulo 5 MACHINE LEARNING: CONCEPTOS BÁSICOS | AMAT- Introducción a Ciencia de Datos y Machine Learning
…
Finalmente, el error estimado por el es el promedio de todos lo \(i\) errores calculados.

La principal desventaja de este método es su costo computacional.
El proceso requiere que el modelo sea reajustado y validado tantas veces como observaciones disponibles
se tengan lo que en algunos casos puede ser muy complicado.

rsample contiene la función loo_cv().

set.seed(55)
ames_loo <- loo_cv(ames_train)
ames_loo

## # Leave-one-out cross-validation 
## # A tibble: 2,342 x 2
##    splits           id        
##    <list>           <chr>     
##  1 <split [2341/1]> Resample1 
##  2 <split [2341/1]> Resample2 
##  3 <split [2341/1]> Resample3 
##  4 <split [2341/1]> Resample4 
##  5 <split [2341/1]> Resample5 
##  6 <split [2341/1]> Resample6 
##  7 <split [2341/1]> Resample7 
##  8 <split [2341/1]> Resample8 
##  9 <split [2341/1]> Resample9 
## 10 <split [2341/1]> Resample10
## # ... with 2,332 more rows
…
