Capítulo 6 MACHINE LEARNING: APRENDIZAJE SUPERVISADO | AMAT- Introducción a Ciencia de Datos y Machine Learning
…
Ahora recuperamos la matriz de diseño con las funciones prep() y juice().

telco_juiced <- juice(telco_rec)
telco_juiced

## # A tibble: 4,930 × 28
##    SeniorCitizen MonthlyCharges TotalCharges Churn gender_Male Partner_Yes
##            <dbl>          <dbl>        <dbl> <fct>       <dbl>       <dbl>
##  1        -0.442         -1.50        -0.663 No              0           0
##  2        -0.442          0.664        0.472 No              1           1
##  3        -0.442         -0.508       -0.546 No              0           0
##  4         2.26           0.649       -0.850 Yes             0           0
##  5        -0.442          0.167       -0.979 Yes             0           0
##  6        -0.442          0.842        0.975 No              1           1
##  7        -0.442          0.260       -0.648 No              1           0
##  8        -0.442         -0.668        0.178 No              1           1
##  9        -0.442         -1.20        -0.706 No              1           1
## 10        -0.442         -0.407       -0.348 No              0           0
## # … with 4,920 more rows, and 22 more variables: Dependents_Yes <dbl>,
## #   tenure_X1.2.years <dbl>, tenure_X2.3.years <dbl>, tenure_X3.4.years <dbl>,
## #   tenure_X4.5.years <dbl>, tenure_X5.6.years <dbl>, PhoneService_Yes <dbl>,
## #   MultipleLines_Yes <dbl>, InternetService_Fiber.optic <dbl>,
## #   InternetService_No <dbl>, OnlineSecurity_Yes <dbl>, OnlineBackup_Yes <dbl>,
## #   DeviceProtection_Yes <dbl>, TechSupport_Yes <dbl>, StreamingTV_Yes <dbl>,
## #   StreamingMovies_Yes <dbl>, Contract_One.year <dbl>, …

telco_test_bake <-  bake(telco_rec, new_data = telco_test)
telco_test_bake

## # A tibble: 2,113 × 28
##    SeniorCitizen MonthlyCharges TotalCharges Churn gender_Male Partner_Yes
##            <dbl>          <dbl>        <dbl> <fct>       <dbl>       <dbl>
##  1        -0.442         -0.271       -0.175 No              1           0
##  2        -0.442          1.15        -0.647 Yes             0           0
##  3        -0.442         -1.18        -0.876 No              0           0
##  4        -0.442         -1.53        -0.865 No              1           0
##  5        -0.442          1.38         2.25  No              1           0
##  6        -0.442          0.830       -0.187 No              0           0
##  7        -0.442         -1.51        -0.920 No              1           1
##  8        -0.442         -0.183        0.302 No              1           1
##  9        -0.442         -1.16        -0.996 Yes             1           1
## 10        -0.442          0.837        1.80  No              1           1
## # … with 2,103 more rows, and 22 more variables: Dependents_Yes <dbl>,
## #   tenure_X1.2.years <dbl>, tenure_X2.3.years <dbl>, tenure_X3.4.years <dbl>,
## #   tenure_X4.5.years <dbl>, tenure_X5.6.years <dbl>, PhoneService_Yes <dbl>,
## #   MultipleLines_Yes <dbl>, InternetService_Fiber.optic <dbl>,
## #   InternetService_No <dbl>, OnlineSecurity_Yes <dbl>, OnlineBackup_Yes <dbl>,
## #   DeviceProtection_Yes <dbl>, TechSupport_Yes <dbl>, StreamingTV_Yes <dbl>,
## #   StreamingMovies_Yes <dbl>, Contract_One.year <dbl>, …
…
lm_fit1 <- fit(modelo1, Log_SalePrice ~ ., casa_juiced)

p_test <- predict(lm_fit1,casa_test_bake) %>%
  bind_cols(ames_test)  %>% 
  dplyr::mutate(.pred=exp(.pred), SalePrice = exp(Log_SalePrice))

6.3.5 Coeficientes del modelo

Podemos recuperar los coeficientes de nuestro modelo con la función tidy() y observar cuales variables explicativas son las más significativas de acuerdo con el p-value.

tidy(lm_fit1) %>% 
  arrange(p.value)

## # A tibble: 370 × 5
##    term                                   estimate std.error statistic  p.value
##    <chr>                                     <dbl>     <dbl>     <dbl>    <dbl>
##  1 (Intercept)                                6.54     0.457     14.3  4.94e-44
##  2 Roof_Matl_WdShngl                          2.99     0.214     13.9  5.52e-42
##  3 Roof_Matl_CompShg                          2.83     0.211     13.4  5.62e-39
##  4 Roof_Matl_Tar.Grv                          2.88     0.219     13.1  1.40e-37
##  5 Roof_Matl_WdShake                          2.80     0.217     12.9  2.80e-36
##  6 Roof_Matl_Metal                            2.98     0.249     12.0  7.33e-32
##  7 Neighborhood_Edwards_x_Condition_1_Pos    -1.57     0.164     -9.61 2.37e-21
##  8 Misc_Feature_Gar2                          2.17     0.244      8.88 1.65e-18
##  9 Misc_Feature_Othr                          2.21     0.261      8.48 4.59e-17
## 10 Misc_Feature_Shed                          2.17     0.268      8.11 9.16e-16
## # … with 360 more rows
…
6.5.5 Implementación en R

Ajustaremos un modelo de regresión logística usando la receta antes vista.

logistic_model <-  logistic_reg() %>%
  set_engine("glm")

logistic_fit1 <- fit(logistic_model, Churn ~ ., telco_juiced)

logistic_p_test <- predict(logistic_fit1, telco_test_bake) %>%
  bind_cols(telco_test_bake)

logistic_p_test

## # A tibble: 2,113 × 29
##    .pred_class SeniorCitizen MonthlyCharges TotalCharges Churn gender_Male
##    <fct>               <dbl>          <dbl>        <dbl> <fct>       <dbl>
##  1 No                 -0.442         -0.271       -0.175 No              1
##  2 Yes                -0.442          1.15        -0.647 Yes             0
##  3 No                 -0.442         -1.18        -0.876 No              0
##  4 No                 -0.442         -1.53        -0.865 No              1
##  5 No                 -0.442          1.38         2.25  No              1
##  6 Yes                -0.442          0.830       -0.187 No              0
##  7 No                 -0.442         -1.51        -0.920 No              1
##  8 No                 -0.442         -0.183        0.302 No              1
##  9 No                 -0.442         -1.16        -0.996 Yes             1
## 10 No                 -0.442          0.837        1.80  No              1
## # … with 2,103 more rows, and 23 more variables: Partner_Yes <dbl>,
## #   Dependents_Yes <dbl>, tenure_X1.2.years <dbl>, tenure_X2.3.years <dbl>,
## #   tenure_X3.4.years <dbl>, tenure_X4.5.years <dbl>, tenure_X5.6.years <dbl>,
## #   PhoneService_Yes <dbl>, MultipleLines_Yes <dbl>,
## #   InternetService_Fiber.optic <dbl>, InternetService_No <dbl>,
## #   OnlineSecurity_Yes <dbl>, OnlineBackup_Yes <dbl>,
## #   DeviceProtection_Yes <dbl>, TechSupport_Yes <dbl>, StreamingTV_Yes <dbl>, …
…
F1 Score

with(logistic_p_test,MLmetrics::F1_Score(.pred_class,Churn),event_level = "second" )

## [1] 0.8720787

¿Y si se quiere un corte diferente? ¿el negocio qué necesita?

logistic_p_test_prob <- predict(logistic_fit1, telco_test_bake, type="prob") %>%
  bind_cols(telco_test_bake)

logistic_p_test_prob

## # A tibble: 2,113 × 30
##    .pred_No .pred_Yes SeniorCitizen MonthlyCharges TotalCharges Churn
##       <dbl>     <dbl>         <dbl>          <dbl>        <dbl> <fct>
##  1    0.963    0.0367        -0.442         -0.271       -0.175 No   
##  2    0.163    0.837         -0.442          1.15        -0.647 Yes  
##  3    0.665    0.335         -0.442         -1.18        -0.876 No   
##  4    0.987    0.0130        -0.442         -1.53        -0.865 No   
##  5    0.965    0.0348        -0.442          1.38         2.25  No   
##  6    0.491    0.509         -0.442          0.830       -0.187 No   
##  7    0.925    0.0753        -0.442         -1.51        -0.920 No   
##  8    0.955    0.0449        -0.442         -0.183        0.302 No   
##  9    0.576    0.424         -0.442         -1.16        -0.996 Yes  
## 10    0.981    0.0187        -0.442          0.837        1.80  No   
## # … with 2,103 more rows, and 24 more variables: gender_Male <dbl>,
## #   Partner_Yes <dbl>, Dependents_Yes <dbl>, tenure_X1.2.years <dbl>,
## #   tenure_X2.3.years <dbl>, tenure_X3.4.years <dbl>, tenure_X4.5.years <dbl>,
## #   tenure_X5.6.years <dbl>, PhoneService_Yes <dbl>, MultipleLines_Yes <dbl>,
## #   InternetService_Fiber.optic <dbl>, InternetService_No <dbl>,
## #   OnlineSecurity_Yes <dbl>, OnlineBackup_Yes <dbl>,
## #   DeviceProtection_Yes <dbl>, TechSupport_Yes <dbl>, StreamingTV_Yes <dbl>, …

logistic_p_test_prob <- logistic_p_test_prob %>% 
  mutate(.pred_class  = as_factor(if_else ( .pred_Yes >= 0.30, 'Yes', 'No'))) %>% 
  relocate(.pred_class , .before = .pred_No)

logistic_p_test_prob

## # A tibble: 2,113 × 31
##    .pred_class .pred_No .pred_Yes SeniorCitizen MonthlyCharges TotalCharges
##    <fct>          <dbl>     <dbl>         <dbl>          <dbl>        <dbl>
##  1 No             0.963    0.0367        -0.442         -0.271       -0.175
##  2 Yes            0.163    0.837         -0.442          1.15        -0.647
##  3 Yes            0.665    0.335         -0.442         -1.18        -0.876
##  4 No             0.987    0.0130        -0.442         -1.53        -0.865
##  5 No             0.965    0.0348        -0.442          1.38         2.25 
##  6 Yes            0.491    0.509         -0.442          0.830       -0.187
##  7 No             0.925    0.0753        -0.442         -1.51        -0.920
##  8 No             0.955    0.0449        -0.442         -0.183        0.302
##  9 Yes            0.576    0.424         -0.442         -1.16        -0.996
## 10 No             0.981    0.0187        -0.442          0.837        1.80 
## # … with 2,103 more rows, and 25 more variables: Churn <fct>,
## #   gender_Male <dbl>, Partner_Yes <dbl>, Dependents_Yes <dbl>,
## #   tenure_X1.2.years <dbl>, tenure_X2.3.years <dbl>, tenure_X3.4.years <dbl>,
## #   tenure_X4.5.years <dbl>, tenure_X5.6.years <dbl>, PhoneService_Yes <dbl>,
## #   MultipleLines_Yes <dbl>, InternetService_Fiber.optic <dbl>,
## #   InternetService_No <dbl>, OnlineSecurity_Yes <dbl>, OnlineBackup_Yes <dbl>,
## #   DeviceProtection_Yes <dbl>, TechSupport_Yes <dbl>, StreamingTV_Yes <dbl>, …
…
# Se detiene el cluster de trabajo
stopCluster(cluster) 

# Se guarda tune_grid en formato RDS
regularized_tune_result %>% 
  saveRDS("models/ml/regularized_logistic_regression.rds")

# Se carga el modelo
regularized_tune_result <- readRDS("models/ml/regularized_logistic_regression.rds")

# Métricas
regularized_tune_result %>% unnest(.metrics)

## # A tibble: 4,500 × 10
##    splits   id     penalty mixture .metric .estimator .estimate .config  .notes 
##    <list>   <chr>    <dbl>   <dbl> <chr>   <chr>          <dbl> <chr>    <list> 
##  1 <split … Fold… 1   e-10       0 roc_auc binary         0.777 Preproc… <tibbl…
##  2 <split … Fold… 7.20e-10       0 roc_auc binary         0.777 Preproc… <tibbl…
##  3 <split … Fold… 5.18e- 9       0 roc_auc binary         0.777 Preproc… <tibbl…
##  4 <split … Fold… 3.73e- 8       0 roc_auc binary         0.777 Preproc… <tibbl…
##  5 <split … Fold… 2.68e- 7       0 roc_auc binary         0.777 Preproc… <tibbl…
##  6 <split … Fold… 1.93e- 6       0 roc_auc binary         0.777 Preproc… <tibbl…
##  7 <split … Fold… 1.39e- 5       0 roc_auc binary         0.777 Preproc… <tibbl…
##  8 <split … Fold… 1   e- 4       0 roc_auc binary         0.777 Preproc… <tibbl…
##  9 <split … Fold… 7.20e- 4       0 roc_auc binary         0.777 Preproc… <tibbl…
## 10 <split … Fold… 5.18e- 3       0 roc_auc binary         0.777 Preproc… <tibbl…
## # … with 4,490 more rows, and 1 more variable: .predictions <list>
…
stopCluster(cluster)

knn_tune_result %>% saveRDS("models/ml/knn_model_reg.rds")

Podemos obtener las métricas de cada fold con el siguiente código:

knn_tune_result <- readRDS("models/ml/knn_model_reg.rds")

knn_tune_result %>% unnest(.metrics)

## # A tibble: 3,660 × 10
##    splits  id         K weight_func .metric .estimator .estimate .config  .notes
##    <list>  <chr>  <int> <chr>       <chr>   <chr>          <dbl> <chr>    <list>
##  1 <split… Fold01    11 gaussian    rmse    standard       0.247 Preproc… <tibb…
##  2 <split… Fold01    13 gaussian    rmse    standard       0.249 Preproc… <tibb…
##  3 <split… Fold01    15 gaussian    rmse    standard       0.248 Preproc… <tibb…
##  4 <split… Fold01    20 gaussian    rmse    standard       0.249 Preproc… <tibb…
##  5 <split… Fold01    21 gaussian    rmse    standard       0.249 Preproc… <tibb…
##  6 <split… Fold01    23 gaussian    rmse    standard       0.250 Preproc… <tibb…
##  7 <split… Fold01    25 gaussian    rmse    standard       0.251 Preproc… <tibb…
##  8 <split… Fold01    26 gaussian    rmse    standard       0.251 Preproc… <tibb…
##  9 <split… Fold01    28 gaussian    rmse    standard       0.250 Preproc… <tibb…
## 10 <split… Fold01    30 gaussian    rmse    standard       0.252 Preproc… <tibb…
## # … with 3,650 more rows, and 1 more variable: .predictions <list>
…
stopCluster(cluster)

knn_tune_result %>% saveRDS("models/ml/knn_model_cla.rds")

knn_tune_result <- readRDS("models/ml/knn_model_cla.rds")

knn_tune_result %>% unnest(.metrics)

## # A tibble: 3,660 × 10
##    splits  id         K weight_func .metric .estimator .estimate .config  .notes
##    <list>  <chr>  <int> <chr>       <chr>   <chr>          <dbl> <chr>    <list>
##  1 <split… Fold01    11 cos         sens    binary         0.899 Preproc… <tibb…
##  2 <split… Fold01    12 cos         sens    binary         0.899 Preproc… <tibb…
##  3 <split… Fold01    22 cos         sens    binary         0.904 Preproc… <tibb…
##  4 <split… Fold01    27 cos         sens    binary         0.910 Preproc… <tibb…
##  5 <split… Fold01    28 cos         sens    binary         0.910 Preproc… <tibb…
##  6 <split… Fold01    30 cos         sens    binary         0.910 Preproc… <tibb…
##  7 <split… Fold01    33 cos         sens    binary         0.915 Preproc… <tibb…
##  8 <split… Fold01    35 cos         sens    binary         0.918 Preproc… <tibb…
##  9 <split… Fold01    37 cos         sens    binary         0.918 Preproc… <tibb…
## 10 <split… Fold01    39 cos         sens    binary         0.918 Preproc… <tibb…
## # … with 3,650 more rows, and 1 more variable: .predictions <list>
…
stopCluster(cluster)

tree_tune_result %>% saveRDS("models/ml/tree_model_reg.rds")

Podemos obtener las métricas de cada fold con el siguiente código:

tree_tune_result <- readRDS("models/ml/tree_model_reg.rds")

tree_tune_result %>% unnest(.metrics)

## # A tibble: 3,750 × 11
##    splits    id    cost_complexity tree_depth min_n .metric .estimator .estimate
##    <list>    <chr>           <dbl>      <int> <int> <chr>   <chr>          <dbl>
##  1 <split [… Fold…    0.0000000001          1     2 rmse    standard       0.326
##  2 <split [… Fold…    0.0000000001          1     2 mae     standard       0.235
##  3 <split [… Fold…    0.0000000001          1     2 mape    standard       1.97 
##  4 <split [… Fold…    0.0000000001          1    11 rmse    standard       0.326
##  5 <split [… Fold…    0.0000000001          1    11 mae     standard       0.235
##  6 <split [… Fold…    0.0000000001          1    11 mape    standard       1.97 
##  7 <split [… Fold…    0.0000000001          1    21 rmse    standard       0.326
##  8 <split [… Fold…    0.0000000001          1    21 mae     standard       0.235
##  9 <split [… Fold…    0.0000000001          1    21 mape    standard       1.97 
## 10 <split [… Fold…    0.0000000001          1    30 rmse    standard       0.326
## # … with 3,740 more rows, and 3 more variables: .config <chr>, .notes <list>,
## #   .predictions <list>
…
