Capítulo 9 Tidyverse | Introducción a Ciencia de Datos con R (Tidyverse)
…
¿Qué pasó en el ejemplo pasado?

Ahora veamos qué pasa al intriducir rowwise al pipeline

iris %>% 
  rowwise() %>% 
  mutate(suma = Sepal.Length + Sepal.Width + Petal.Length + Petal.Width) %>% 
  ungroup()

## # A tibble: 150 × 6
##    Sepal.Length Sepal.Width Petal.Length Petal.Width Species  suma
##           <dbl>       <dbl>        <dbl>       <dbl> <fct>   <dbl>
##  1          5.1         3.5          1.4         0.2 setosa   10.2
##  2          4.9         3            1.4         0.2 setosa    9.5
##  3          4.7         3.2          1.3         0.2 setosa    9.4
##  4          4.6         3.1          1.5         0.2 setosa    9.4
##  5          5           3.6          1.4         0.2 setosa   10.2
##  6          5.4         3.9          1.7         0.4 setosa   11.4
##  7          4.6         3.4          1.4         0.3 setosa    9.7
##  8          5           3.4          1.5         0.2 setosa   10.1
##  9          4.4         2.9          1.4         0.2 setosa    8.9
## 10          4.9         3.1          1.5         0.1 setosa    9.6
## # … with 140 more rows

iris %>% 
  rowwise() %>% 
  mutate(suma = sum(across(Sepal.Length:Petal.Width))) %>% 
  ungroup()

## # A tibble: 150 × 6
##    Sepal.Length Sepal.Width Petal.Length Petal.Width Species  suma
##           <dbl>       <dbl>        <dbl>       <dbl> <fct>   <dbl>
##  1          5.1         3.5          1.4         0.2 setosa   10.2
##  2          4.9         3            1.4         0.2 setosa    9.5
##  3          4.7         3.2          1.3         0.2 setosa    9.4
##  4          4.6         3.1          1.5         0.2 setosa    9.4
##  5          5           3.6          1.4         0.2 setosa   10.2
##  6          5.4         3.9          1.7         0.4 setosa   11.4
##  7          4.6         3.4          1.4         0.3 setosa    9.7
##  8          5           3.4          1.5         0.2 setosa   10.1
##  9          4.4         2.9          1.4         0.2 setosa    8.9
## 10          4.9         3.1          1.5         0.1 setosa    9.6
## # … with 140 more rows
…
En caso de que existan múltiples columnas que se desean dispersar mediante el pivote de una columna con múltiples categorías, es posible especificar tal reestructuración a través del siguiente código.

us_rent_income %>% arrange(NAME)

## # A tibble: 104 × 5
##    GEOID NAME       variable estimate   moe
##    <chr> <chr>      <chr>       <dbl> <dbl>
##  1 01    Alabama    income      24476   136
##  2 01    Alabama    rent          747     3
##  3 02    Alaska     income      32940   508
##  4 02    Alaska     rent         1200    13
##  5 04    Arizona    income      27517   148
##  6 04    Arizona    rent          972     4
##  7 05    Arkansas   income      23789   165
##  8 05    Arkansas   rent          709     5
##  9 06    California income      29454   109
## 10 06    California rent         1358     3
## # … with 94 more rows

us_rent_income %>%
  pivot_wider(names_from = variable, values_from = c(estimate, moe))

## # A tibble: 52 × 6
##    GEOID NAME                 estimate_income estimate_rent moe_income moe_rent
##    <chr> <chr>                          <dbl>         <dbl>      <dbl>    <dbl>
##  1 01    Alabama                        24476           747        136        3
##  2 02    Alaska                         32940          1200        508       13
##  3 04    Arizona                        27517           972        148        4
##  4 05    Arkansas                       23789           709        165        5
##  5 06    California                     29454          1358        109        3
##  6 08    Colorado                       32401          1125        109        5
##  7 09    Connecticut                    35326          1123        195        5
##  8 10    Delaware                       31560          1076        247       10
##  9 11    District of Columbia           43198          1424        681       17
## 10 12    Florida                        25952          1077         70        3
## # … with 42 more rows

Adicionalmente, se puede especificar una funcion de agregacion que operara antes de acomodar los datos en las respectivas columnas indicadas. Un ejemplo de funciones agregadas en la reestructuración de tabla se muestra a continuación, donde se muestra la media de los valores en las categorías tension y breaks.

warpbreaks <- as_tibble(warpbreaks[c("wool", "tension", "breaks")])
warpbreaks

## # A tibble: 54 × 3
##    wool  tension breaks
##    <fct> <fct>    <dbl>
##  1 A     L           26
##  2 A     L           30
##  3 A     L           54
##  4 A     L           25
##  5 A     L           70
##  6 A     L           52
##  7 A     L           51
##  8 A     L           26
##  9 A     L           67
## 10 A     M           18
## # … with 44 more rows
…
Este conjunto de datos contiene tres variables:

religion, almacenada en las filas

income repartidos entre los nombres de columna

count almacenado en los valores de las celdas.

Para ordenarlo usamos pivot_longer():

relig_income %>% 
  pivot_longer(cols = -religion, names_to = "income", values_to = "count")

## # A tibble: 180 × 3
##    religion income             count
##    <chr>    <chr>              <dbl>
##  1 Agnostic <$10k                 27
##  2 Agnostic $10-20k               34
##  3 Agnostic $20-30k               60
##  4 Agnostic $30-40k               81
##  5 Agnostic $40-50k               76
##  6 Agnostic $50-75k              137
##  7 Agnostic $75-100k             122
##  8 Agnostic $100-150k            109
##  9 Agnostic >150k                 84
## 10 Agnostic Don't know/refused    96
## # … with 170 more rows
…
Es común que en los conjuntos de datos exista información esparcida en distintas columas que sería deseable (en muy pocas ocasiones) tenerlas en una sola columna. Algunos ejemplos de esta situación deseable son las fechas y claves geoestadísticas. La función unite() sirve para concatenar el contenido de columnas mediante un separador elegible.

Se usará la variable de la clave geoestadística de localidades del país como ejemplo.

El formato para las claves geoestadísticas para estado, municipio y localidad son claves alfanuméricas que contienen 2, 3 y 4 caracteres respectivamente. Es indispensable que al trabajar con claves geoestadísticas, las claves estén en su formato original. A continuación se hará la homologación de las claves para usar la función unite().

library(magrittr)
library(readxl)
library(stringr)

Datos <- read_excel("data/Margin CONAPO.xlsx", sheet = "Margin CONAPO")
Datos

## # A tibble: 107,458 × 21
##      ENT NOM_ENT         MUN NOM_MUN   LOC NOM_LOC POB_TOT    VPH ANAL10 SPRIM10
##    <dbl> <chr>         <dbl> <chr>   <dbl> <chr>     <dbl>  <dbl>  <dbl>   <dbl>
##  1     1 Aguascalient…     1 Aguasc…     1 Aguasc…  722250 184123   2.26   10.9 
##  2     1 Aguascalient…     1 Aguasc…    96 Agua A…      37     11  17.9    48.1 
##  3     1 Aguascalient…     1 Aguasc…   104 Ardill…      14      3   0      20   
##  4     1 Aguascalient…     1 Aguasc…   106 Arella…    1382    255   5.60   24.7 
##  5     1 Aguascalient…     1 Aguasc…   112 Bajío …      55     11  14.3    38.1 
##  6     1 Aguascalient…     1 Aguasc…   114 Reside…     757    202   0       1.63
##  7     1 Aguascalient…     1 Aguasc…   120 Buenav…     935    217  10.7    29.5 
##  8     1 Aguascalient…     1 Aguasc…   121 Cabeci…     184     44   4.55   32.6 
##  9     1 Aguascalient…     1 Aguasc…   125 Cañada…     395     82   8.86   23.9 
## 10     1 Aguascalient…     1 Aguasc…   126 Cañada…     509    123   4.75   19.6 
## # … with 107,448 more rows, and 11 more variables: SEXC10 <dbl>, SEE10 <dbl>,
## #   SAGUAE10 <dbl>, PROM_OCC10 <dbl>, PISOTIE10 <dbl>, SREFRI10 <dbl>,
## #   IM_2010 <dbl>, GM_2010 <chr>, IMC0A100 <dbl>, LUG_NAL <dbl>, LUG_EDO <dbl>
…
